<svg width="14" height="14" viewbox="0 0 14 14" fill="none" xmlns="http://www.w3.org/2000/svg">
<path d="M13.8617 11.8411L11.0756 9.05495L13.0633 7.90681C13.2186 7.81706 13.309 7.64656 13.296 7.46767C13.2832 7.28873 13.1692 7.13294 13.0026 7.06652L4.13908 3.53092C3.96529 3.46153 3.76693 3.5024 3.63461 3.63467C3.50229 3.76704 3.46143 3.96539 3.53077 4.13915L7.06585 13.0036C7.13232 13.1702 7.28811 13.2842 7.46705 13.2971C7.64598 13.3101 7.81648 13.2197 7.90619 13.0643L9.05415 11.0767L11.8401 13.8629C11.9279 13.9507 12.047 14 12.1712 14C12.2953 14 12.4144 13.9507 12.5022 13.8629L13.8617 12.5032C14.0445 12.3204 14.0445 12.024 13.8617 11.8411ZM12.1712 12.8698L9.28493 9.98329C9.1965 9.89486 9.0772 9.84612 8.95388 9.84612C8.93361 9.84612 8.91316 9.84744 8.89284 9.85013C8.74845 9.86908 8.62118 9.95411 8.54845 10.0802L7.57815 11.7603L4.80411 4.80441L11.7593 7.57882L10.0791 8.5493C9.95303 8.62203 9.86799 8.74931 9.84904 8.89369C9.83004 9.03793 9.87921 9.18284 9.98216 9.28579L12.8685 12.1723L12.1712 12.8698Z" fill="black"/>
<path d="M2.05507 1.39313C1.87218 1.21043 1.57586 1.21043 1.39287 1.39313C1.21003 1.57603 1.21003 1.87244 1.39287 2.05533L2.43317 3.09563C2.52457 3.18698 2.64444 3.23276 2.76427 3.23276C2.88404 3.23276 3.00382 3.18698 3.09532 3.09563C3.27812 2.91278 3.27812 2.61633 3.09532 2.43348L2.05507 1.39313Z" fill="black"/>
<path d="M2.40763 4.62975C2.40763 4.3712 2.19796 4.16162 1.93941 4.16162H0.468224C0.209718 4.16162 0 4.37115 0 4.62975C0 4.88826 0.209671 5.09793 0.468224 5.09793H1.93941C2.19796 5.09788 2.40763 4.88826 2.40763 4.62975Z" fill="black"/>
<path d="M2.21797 6.0746L1.17758 7.11499C0.994681 7.29775 0.994681 7.5942 1.17758 7.77705C1.26898 7.86845 1.38871 7.91417 1.50863 7.91417C1.62841 7.91417 1.74819 7.86845 1.83959 7.77705L2.88002 6.73671C3.06287 6.5539 3.06287 6.2574 2.88002 6.0746C2.69727 5.8918 2.40086 5.8918 2.21797 6.0746Z" fill="black"/>
<path d="M4.62951 2.40773C4.88801 2.40773 5.09768 2.19806 5.09768 1.9395V0.468177C5.09768 0.209671 4.88806 0 4.62951 0C4.37095 0 4.16138 0.209624 4.16138 0.468177V1.93955C4.16138 2.19806 4.37091 2.40773 4.62951 2.40773Z" fill="black"/>
<path d="M6.40479 3.01714C6.52471 3.01714 6.64449 2.97151 6.73589 2.88007L7.77614 1.83977C7.95903 1.65692 7.95903 1.36047 7.77614 1.17766C7.59333 0.994815 7.29679 0.994815 7.11408 1.17766L6.07378 2.21796C5.89093 2.40076 5.89093 2.69726 6.07378 2.88007C6.16518 2.97151 6.28501 3.01714 6.40479 3.01714Z" fill="black"/>
</svg>
